<?xml version="1.0" encoding="utf-8"?>
<!-- Generator: Adobe Illustrator 23.1.0, SVG Export Plug-In . SVG Version: 6.00 Build 0)  -->
<svg version="1.1" id="Layer_1" xmlns="http://www.w3.org/2000/svg" xmlns:xlink="http://www.w3.org/1999/xlink" x="0px" y="0px"
	 viewBox="0 0 150 92" style="enable-background:new 0 0 150 92;" xml:space="preserve">
<style type="text/css">
	.st0{fill-rule:evenodd;clip-rule:evenodd;fill:#333995;}
	.st1{fill:#333995;}
	.st2{fill-rule:evenodd;clip-rule:evenodd;fill:#0F6FB6;}
	.st3{fill-rule:evenodd;clip-rule:evenodd;fill:#F05A25;}
	.st4{fill-rule:evenodd;clip-rule:evenodd;fill:#699F41;}
	.st5{fill-rule:evenodd;clip-rule:evenodd;fill:#EC1C24;}
</style>
<path class="st0" d="M43.4,9.7V33c0,0.8,0.3,1.5,0.3,1.8c0.3,0.3,1,0.5,1.8,0.5c0.3,0,0.5-0.3,0.8-0.3v0.8h-7.3V35h2.3V17.2h-8.5V33
	c0,1,0.3,1.8,0.8,2c0.3,0,1,0,2,0v0.8h-7.3V35h2.3V11.7c0-1.3-0.8-2-2.3-2h-0.5V8.9h7.3v0.8h-2.3v6.5h8.5v-4.5c0-1.3-0.8-2-2-2h-0.8
	V8.9h7.3v0.8"/>
<path class="st0" d="M128.1,10.3h-4.3c-1.1,0-2,0.3-2.4,0.5c-0.5,0.3-0.9,0.9-1.1,1.5c-0.3,0.8-0.5,2.3-0.5,4.1c0,0.4,0.1,1,0.1,1.6
	h-0.8V8.2h0.8v1.4h10.8l-10.9,26.1h6.5c2,0,3.3-0.6,3.6-1.8c0.5-0.8,0.8-2.4,0.8-4.4v-3.1h0.8v11.5h-0.8v-1.5h-13.6L128.1,10.3z"/>
<path class="st0" d="M21.6,7.5v10.4h-0.8v-2.5c0-1.8-0.3-3.3-0.6-4.3c-0.5-1.1-1.5-1.8-3-1.8c-1,0-1.9,0.5-2.5,1.1
	c-0.8,0.8-1.1,1.6-1.1,2.6c0,0.9,0.3,1.8,0.8,2.5c0.5,0.8,1.3,1.4,1.9,1.8c0.8,0.5,1.9,1.1,3.4,1.9c2.3,1.1,4,2.4,5.3,3.5
	c1.3,1.3,2,2.9,2,4.9c0,1.6-0.5,3.3-1.5,4.6c-1,1.4-2.4,2.5-4,3.3c-1.6,0.8-3.5,1.1-5.3,1.1c-1.8,0-3.5-0.4-5-1
	c-1.5-0.8-2.9-1.8-3.6-3C6.5,31.5,6,29.9,6,28.1c0-2,0.6-4,2-5.5c1.5-1.5,3.3-2.4,5.3-2.4c1.3,0,2.6,0.5,3.8,1.3
	c1.1,0.8,1.8,2,1.8,3.3c0,0.8-0.4,1.6-0.9,2.3c-0.5,0.6-1.4,1-2.1,1c-0.3,0-0.6-0.1-1-0.3l0.1-0.8c1.3-0.3,1.9-1.1,1.9-2.3
	c0-0.9-0.4-1.8-1-2.4c-0.8-0.8-1.6-1.1-2.6-1.1c-1.5,0-2.8,0.6-3.6,1.9c-1,1.3-1.5,2.8-1.5,4.3c0,2.3,0.8,4.3,2.3,5.9
	c1.5,1.6,3.5,2.5,6,2.5c1.4,0,2.9-0.4,4.1-0.9c1.3-0.6,2.4-1.6,3.1-2.8c0.8-1.3,1.3-2.6,1.3-3.9c0-1.5-0.8-2.9-1.8-3.9
	c-1.1-1-2.9-2.3-5-3.4c-2-1-3.5-2.1-4.5-3c-1-1-1.5-2.4-1.5-4.1c0-1.5,0.6-2.8,1.8-3.8c1.1-1,2.6-1.6,4.1-1.6c0.6,0,1.6,0.3,2.9,0.8
	V7.5H21.6z"/>
<polyline class="st0" points="136.5,26 133.3,28.5 136,31.7 139.3,29.2 "/>
<path class="st0" d="M140.9,0c-0.5,0-1,0-1.3,0c-0.3,0.3-0.5,0.3-1,0.5c0,0.3-0.3,0.5-0.3,1c0,0,0.1,0,0.1,0.1l-0.1-0.1L136.8,24
	l6-21.5c0.1-0.1,0.1-0.3,0.1-0.4l0.1-0.1l-0.1,0.1c0.1-0.1,0-0.3,0-0.4c0.3-0.3,0-0.5-0.3-0.8c0-0.3-0.3-0.5-0.8-0.8
	C141.7,0,141.4,0,140.9,0z"/>
<path class="st0" d="M82.4,42.9c9.2,6.4,12.3,17.7,6.6,25.2c-5.6,7.6-17.7,8.5-26.9,2.2c-9.3-6.4-12.3-17.7-6.7-25.3
	C61,37.4,73.1,36.5,82.4,42.9z"/>
<path class="st1" d="M109.2,23.5c-2.1-1.3-4.3-2-6.5-2h-0.1c-2.3,0-4.8,0.6-6.8,1.9c-0.1,0.1-0.1,0.1-0.1,0.1
	c-0.3-1.9-1-3.8-1.8-5.5c-1.1-2-2.9-3.8-4.9-5c-2.1-1.3-4.3-2-6.5-2h-0.1c-2.3,0-4.8,0.6-6.8,1.9c-1.6,1-3,2.1-4.3,3.6
	c0-0.1-0.1-0.3-0.1-0.5c-1.1-2-2.9-3.8-4.9-5c-2.1-1.3-4.3-2-6.5-2h-0.1c-2.3,0-4.8,0.6-6.8,1.9c-2.1,1.3-4,3-5.3,5.3
	c-1.1,2.1-1.8,4.6-1.8,7.3c0,2.5,0.5,5,1.6,7.2c1.3,2.1,2.9,3.9,5,5.1c2.1,1.1,4.4,1.8,6.7,1.8c2.4,0,4.6-0.8,6.8-2
	c1.4-0.9,2.8-2,3.9-3.4c0.1,0.1,0.3,0.4,0.4,0.5c1.3,2.1,2.9,3.9,5,5.1c2.1,1.1,4.4,1.8,6.7,1.8c2.4,0,4.6-0.8,6.8-2c0,0,0,0,0.1,0
	c0.1,2,0.6,4,1.6,5.6c1.3,2.1,2.9,3.9,5,5.1c2.1,1.1,4.4,1.8,6.7,1.8c2.4,0,4.6-0.8,6.8-2c2-1.3,3.9-3,5.1-5.1c1.3-2.1,2-4.6,2-7.2
	c0-2.5-0.8-5-1.9-7.2C113,26.5,111.2,24.7,109.2,23.5z M68.5,25.3c0,1.8,0.1,3.4,0.6,5c-0.9,1.8-2.3,3.3-3.9,4.3
	c-1.6,1-3.5,1.6-5.6,1.6c-2.1,0-4.3-0.5-6.1-1.8c-1.8-1.3-3.3-3-4.3-5.1c-0.9-2-1.5-4.4-1.5-6.8c0-2.1,0.6-4.3,1.5-6.3
	c1-1.9,2.5-3.5,4-4.6c1.6-1.1,3.7-1.7,5.8-1.8c0,0,0,0-0.1,0h0.1c0,0,0,0-0.1,0c2,0,4.1,0.8,5.8,2c1.9,1.3,3.4,3,4.5,5.1
	c0.1,0.5,0.4,1,0.6,1.5C69,20.6,68.5,23,68.5,25.3z M70.5,27.1c-0.1-0.8-0.1-1.6-0.1-2.5c0-1,0.1-2,0.4-3.1c0.1,0.8,0.3,1.5,0.3,2.3
	C71,25,70.8,26.1,70.5,27.1z M88.7,35.9c0,0.1,0,0.3,0,0.3c-0.3,0.3-0.5,0.4-0.8,0.5c-1.6,1-3.5,1.6-5.6,1.6c-2.1,0-4.3-0.5-6.1-1.8
	c-1.8-1.3-3.3-3-4.3-5.1c-0.3-0.5-0.5-1-0.6-1.5c1-2,1.8-4.4,1.8-6.8c0-1.6-0.4-3.4-1-5c1-1.8,2.4-3.3,3.9-4.4
	c1.6-1.1,3.7-1.7,5.8-1.8c0,0,0,0-0.1,0h0.1c0,0,0,0-0.1,0c2,0,4.1,0.8,5.8,2c1.9,1.3,3.4,3,4.5,5.1c0.8,1.8,1.4,3.8,1.5,5.8
	c-1.3,1-2.4,2.4-3.1,3.8C89.4,30.7,88.7,33.3,88.7,35.9z M93.6,26.6c0,1.9-0.6,3.8-1.5,5.4c-0.5,0.9-1,1.6-1.5,2.4
	c0.1-1.9,0.6-3.8,1.5-5.5C92.5,28.1,93,27.2,93.6,26.6z M112.3,42.5c-0.9,1.9-2.4,3.5-4.1,4.6c-1.6,1-3.5,1.6-5.6,1.6
	c-2.1,0-4.3-0.5-6.1-1.8c-1.8-1.3-3.3-3-4.3-5.1c-0.9-1.8-1.4-3.8-1.5-5.9c1.1-1.1,2.3-2.3,3.1-3.8c1.3-2.1,2-4.6,2-7.2
	c0-0.1-0.1-0.4-0.1-0.5c0.1-0.1,0.3-0.3,0.5-0.4c1.6-1.1,3.7-1.7,5.8-1.8c0,0,0,0-0.1,0h0.1c0,0,0,0-0.1,0c2,0,4.1,0.8,5.8,2
	c1.9,1.3,3.4,3,4.5,5.1c1,2,1.6,4.4,1.6,6.7C114,38.5,113.5,40.7,112.3,42.5z"/>
<path class="st2" d="M58.8,15.7c5,0,9.1,4.3,9.1,9.5c0,5.2-4.1,9.5-9.1,9.5c-5,0-9.1-4.3-9.1-9.5C49.7,19.9,53.8,15.7,58.8,15.7"/>
<path class="st3" d="M82.9,16c4.7,0.5,8,5.2,7.5,10.4c-0.6,5.2-4.8,9-9.5,8.5c-4.7-0.5-8-5.2-7.5-10.4C73.9,19.3,78.2,15.5,82.9,16"
	/>
<path class="st4" d="M102.2,28.5c5,0,9.1,4.3,9.1,9.5c0,5.2-4.1,9.5-9.1,9.5c-5,0-9.1-4.3-9.1-9.5C93.1,32.8,97.2,28.5,102.2,28.5"
	/>
<polyline class="st0" points="9.9,91.6 9.9,81.9 6.4,81.9 6.4,79.9 15.7,79.9 15.7,81.9 12.2,81.9 12.2,91.6 "/>
<polyline class="st0" points="17.2,91.6 17.2,79.9 19.6,79.9 19.6,84.5 24.2,84.5 24.2,79.9 26.6,79.9 26.6,91.6 24.2,91.6 
	24.2,86.5 19.6,86.5 19.6,91.6 "/>
<polyline class="st0" points="29,91.6 29,79.9 37.6,79.9 37.6,81.9 31.3,81.9 31.3,84.5 37.2,84.5 37.2,86.4 31.3,86.4 31.3,89.6 
	37.9,89.6 37.9,91.6 "/>
<path class="st0" d="M43.8,87.8l2.3-0.2c0.1,0.8,0.4,1.3,0.8,1.7c0.4,0.4,1,0.5,1.7,0.5c0.8,0,1.3-0.2,1.7-0.5
	c0.4-0.3,0.6-0.7,0.6-1.1c0-0.3-0.1-0.5-0.2-0.7c-0.2-0.2-0.4-0.4-0.8-0.5c-0.3-0.1-0.9-0.3-1.9-0.5c-1.3-0.3-2.1-0.7-2.7-1.2
	c-0.7-0.6-1.1-1.4-1.1-2.3c0-0.6,0.2-1.1,0.5-1.7c0.3-0.5,0.8-0.9,1.5-1.2c0.6-0.3,1.4-0.4,2.3-0.4c1.5,0,2.6,0.3,3.3,1
	c0.7,0.6,1.1,1.5,1.2,2.6l-2.4,0.1c-0.1-0.6-0.3-1-0.6-1.3c-0.3-0.3-0.8-0.4-1.5-0.4c-0.7,0-1.2,0.1-1.6,0.4
	c-0.2,0.2-0.4,0.4-0.4,0.7c0,0.3,0.1,0.5,0.4,0.7c0.3,0.2,1,0.5,2.2,0.8c1.1,0.3,2,0.6,2.5,0.8c0.5,0.3,1,0.7,1.3,1.2
	c0.3,0.5,0.5,1.1,0.5,1.9c0,0.7-0.2,1.3-0.6,1.9c-0.4,0.6-0.9,1-1.6,1.3c-0.7,0.3-1.5,0.4-2.5,0.4c-1.5,0-2.6-0.3-3.4-1
	C44.4,90.1,43.9,89.1,43.8,87.8"/>
<polyline class="st0" points="55.3,91.6 55.3,79.9 57.6,79.9 57.6,84.5 62.2,84.5 62.2,79.9 64.6,79.9 64.6,91.6 62.2,91.6 
	62.2,86.5 57.6,86.5 57.6,91.6 "/>
<path class="st0" d="M69,85.7c0,1.3,0.3,2.3,0.9,3c0.6,0.7,1.4,1,2.3,1c0.9,0,1.7-0.3,2.3-1c0.6-0.7,0.9-1.7,0.9-3
	c0-1.3-0.3-2.3-0.9-3c-0.6-0.7-1.4-1-2.3-1c-1,0-1.8,0.3-2.3,1C69.3,83.4,69,84.4,69,85.7 M66.5,85.8c0-1.2,0.2-2.2,0.5-3
	c0.3-0.6,0.6-1.1,1.1-1.6c0.5-0.5,1-0.8,1.5-1c0.7-0.3,1.6-0.5,2.5-0.5c1.7,0,3.1,0.5,4.1,1.6c1,1.1,1.5,2.5,1.5,4.4
	c0,1.9-0.5,3.4-1.5,4.4c-1,1.1-2.4,1.6-4.1,1.6c-1.7,0-3.1-0.5-4.1-1.6C67.1,89.1,66.5,87.7,66.5,85.8z"/>
<path class="st0" d="M97,84.8h1.7c1.1,0,1.8,0,2.1-0.1c0.3-0.1,0.5-0.3,0.7-0.5c0.2-0.2,0.2-0.5,0.2-0.9c0-0.4-0.1-0.7-0.3-1
	c-0.2-0.2-0.5-0.4-0.9-0.5c-0.2,0-0.8,0-1.7,0H97 M94.6,91.6V79.9h5c1.2,0,2.2,0.1,2.7,0.3c0.6,0.2,1,0.6,1.4,1.1
	c0.3,0.5,0.5,1.1,0.5,1.8c0,0.9-0.3,1.6-0.8,2.2c-0.5,0.6-1.3,0.9-2.3,1.1c0.5,0.3,0.9,0.6,1.3,1c0.3,0.4,0.8,1,1.3,1.9l1.4,2.3
	h-2.8l-1.7-2.5c-0.6-0.9-1-1.5-1.2-1.7c-0.2-0.2-0.5-0.4-0.7-0.5c-0.2-0.1-0.6-0.1-1.2-0.1H97v4.9H94.6z"/>
<path class="st0" d="M108.4,85.7c0,1.3,0.3,2.3,0.9,3c0.6,0.7,1.4,1,2.3,1c0.9,0,1.7-0.3,2.3-1c0.6-0.7,0.9-1.7,0.9-3
	c0-1.3-0.3-2.3-0.9-3c-0.6-0.7-1.4-1-2.3-1c-1,0-1.8,0.3-2.3,1C108.7,83.4,108.4,84.4,108.4,85.7 M105.9,85.8c0-1.2,0.2-2.2,0.5-3
	c0.3-0.6,0.6-1.1,1.1-1.6c0.5-0.5,1-0.8,1.5-1c0.7-0.3,1.6-0.5,2.5-0.5c1.7,0,3.1,0.5,4.1,1.6c1,1.1,1.5,2.5,1.5,4.4
	c0,1.9-0.5,3.4-1.5,4.4c-1,1.1-2.4,1.6-4.1,1.6c-1.7,0-3.1-0.5-4.1-1.6C106.4,89.1,105.9,87.7,105.9,85.8z"/>
<path class="st0" d="M121,85.7c0,1.3,0.3,2.3,0.9,3c0.6,0.7,1.4,1,2.3,1c0.9,0,1.7-0.3,2.3-1c0.6-0.7,0.9-1.7,0.9-3
	c0-1.3-0.3-2.3-0.9-3c-0.6-0.7-1.4-1-2.3-1c-1,0-1.8,0.3-2.3,1C121.3,83.4,121,84.4,121,85.7 M118.6,85.8c0-1.2,0.2-2.2,0.5-3
	c0.3-0.6,0.6-1.1,1.1-1.6c0.5-0.5,1-0.8,1.5-1c0.7-0.3,1.6-0.5,2.5-0.5c1.7,0,3.1,0.5,4.1,1.6c1,1.1,1.5,2.5,1.5,4.4
	c0,1.9-0.5,3.4-1.5,4.4c-1,1.1-2.4,1.6-4.1,1.6c-1.7,0-3.1-0.5-4.1-1.6C119.1,89.1,118.6,87.7,118.6,85.8z"/>
<polyline class="st0" points="131.7,91.6 131.7,79.9 135.2,79.9 137.4,87.9 139.5,79.9 143,79.9 143,91.6 140.8,91.6 140.8,82.4 
	138.5,91.6 136.2,91.6 133.9,82.4 133.9,91.6 "/>
<polyline class="st5" points="80.1,91.6 80.1,75.5 92,75.5 92,78.3 83.4,78.3 83.4,81.8 91.4,81.8 91.4,84.5 83.4,84.5 83.4,88.9 
	92.3,88.9 92.3,91.6 "/>
</svg>
