<?xml version="1.0" encoding="utf-8"?>
<!-- Generator: Adobe Illustrator 23.1.0, SVG Export Plug-In . SVG Version: 6.00 Build 0)  -->
<svg version="1.1" id="Layer_1" xmlns="http://www.w3.org/2000/svg" xmlns:xlink="http://www.w3.org/1999/xlink" x="0px" y="0px"
	 viewBox="0 0 150 80" style="enable-background:new 0 0 150 80;" xml:space="preserve">
<style type="text/css">
	.st0{fill-rule:evenodd;clip-rule:evenodd;fill:#333995;stroke:#333995;stroke-width:0.3;stroke-miterlimit:10;}
	.st1{fill-rule:evenodd;clip-rule:evenodd;fill:#333995;}
	.st2{fill:#333995;stroke:#333995;stroke-width:0.3;stroke-miterlimit:10;}
	.st3{fill-rule:evenodd;clip-rule:evenodd;fill:#0F6FB6;}
	.st4{fill-rule:evenodd;clip-rule:evenodd;fill:#F05A25;}
	.st5{fill-rule:evenodd;clip-rule:evenodd;fill:#699F41;}
	.st6{fill-rule:evenodd;clip-rule:evenodd;fill:#FFFFFF;}
	.st7{fill-rule:evenodd;clip-rule:evenodd;fill:#EC1C24;}
</style>
<path class="st0" d="M43.8,10.1v23.4c0,0.8,0.3,1.5,0.3,1.8c0.3,0.3,1,0.5,1.8,0.5c0.3,0,0.5-0.3,0.8-0.3v0.8h-7.3v-0.8h2.3V17.7H33
	v15.8c0,1,0.3,1.8,0.8,2c0.3,0,1,0,2,0v0.8h-7.3v-0.8h2.3V12.1c0-1.3-0.8-2-2.3-2H28V9.4h7.3v0.8H33v6.5h8.5v-4.5c0-1.3-0.8-2-2-2
	h-0.8V9.4h7.3v0.8"/>
<path class="st0" d="M128.6,10.7h-4.3c-1.1,0-2,0.3-2.4,0.5c-0.5,0.3-0.9,0.9-1.1,1.5c-0.3,0.8-0.5,2.3-0.5,4.1c0,0.4,0.1,1,0.1,1.6
	h-0.8V8.6h0.8V10h10.8l-10.9,26.1h6.5c2,0,3.3-0.6,3.6-1.8c0.5-0.8,0.8-2.4,0.8-4.4v-3.1h0.8v11.6h-0.8v-1.5h-13.6L128.6,10.7z"/>
<path class="st0" d="M22,8v10.4h-0.8v-2.5c0-1.8-0.3-3.3-0.6-4.3c-0.5-1.1-1.5-1.8-3-1.8c-1,0-1.9,0.5-2.5,1.1
	c-0.8,0.8-1.1,1.6-1.1,2.6c0,0.9,0.3,1.8,0.8,2.5c0.5,0.8,1.3,1.4,1.9,1.8c0.8,0.5,1.9,1.1,3.4,1.9c2.3,1.1,4,2.4,5.3,3.5
	c1.3,1.3,2,2.9,2,4.9c0,1.6-0.5,3.3-1.5,4.6c-1,1.4-2.4,2.5-4,3.3c-1.6,0.8-3.5,1.1-5.3,1.1c-1.8,0-3.5-0.4-5-1
	c-1.5-0.8-2.9-1.8-3.6-3c-0.9-1.3-1.4-2.9-1.4-4.6c0-2,0.6-4,2-5.5c1.5-1.5,3.3-2.4,5.3-2.4c1.3,0,2.6,0.5,3.8,1.3
	c1.1,0.8,1.8,2,1.8,3.3c0,0.8-0.4,1.6-0.9,2.3c-0.5,0.6-1.4,1-2.1,1c-0.3,0-0.6-0.1-1-0.3l0.1-0.8c1.3-0.3,1.9-1.1,1.9-2.3
	c0-0.9-0.4-1.8-1-2.4c-0.8-0.8-1.6-1.1-2.6-1.1c-1.5,0-2.8,0.6-3.6,1.9c-1,1.3-1.5,2.8-1.5,4.3c0,2.3,0.8,4.3,2.3,5.9
	c1.5,1.6,3.5,2.5,6,2.5c1.4,0,2.9-0.4,4.1-0.9c1.3-0.6,2.4-1.6,3.1-2.8c0.8-1.3,1.3-2.6,1.3-3.9c0-1.5-0.8-2.9-1.8-3.9
	c-1.1-1-2.9-2.3-5-3.4c-2-1-3.5-2.1-4.5-3c-1-1-1.5-2.4-1.5-4.1c0-1.5,0.6-2.8,1.8-3.8c1.1-1,2.6-1.6,4.1-1.6c0.6,0,1.6,0.3,2.9,0.8
	V8H22z"/>
<polyline class="st0" points="137,26.4 133.8,29 136.5,32.2 139.8,29.7 "/>
<path class="st0" d="M141.4,0.5c-0.5,0-1,0-1.3,0c-0.3,0.3-0.5,0.3-1,0.5c0,0.3-0.3,0.5-0.3,1c0,0,0.1,0,0.1,0.1L138.9,2l-1.6,22.5
	l6-21.5c0.1-0.1,0.1-0.3,0.1-0.4l0.1-0.1l-0.1,0.1c0.1-0.1,0-0.3,0-0.4c0.3-0.3,0-0.5-0.3-0.8c0-0.3-0.3-0.5-0.8-0.8
	C142.2,0.5,141.9,0.5,141.4,0.5z"/>
<path class="st1" d="M83.8,44.5c10.1,7,13.4,19.3,7.2,27.6c-6.1,8.3-19.3,9.4-29.5,2.4c-10.2-7-13.4-19.3-7.3-27.7
	C60.4,38.5,73.6,37.5,83.8,44.5z"/>
<path class="st2" d="M109.7,23.9c-2.1-1.3-4.3-2-6.5-2H103c-2.3,0-4.8,0.6-6.8,1.9c-0.1,0.1-0.1,0.1-0.1,0.1c-0.3-1.9-1-3.8-1.8-5.5
	c-1.1-2-2.9-3.8-4.9-5c-2.1-1.3-4.3-2-6.5-2h-0.1c-2.3,0-4.8,0.6-6.8,1.9c-1.6,1-3,2.1-4.3,3.6c0-0.1-0.1-0.3-0.1-0.5
	c-1.1-2-2.9-3.8-4.9-5c-2.1-1.3-4.3-2-6.5-2h-0.1c-2.3,0-4.8,0.6-6.8,1.9c-2.1,1.3-4,3-5.3,5.3c-1.1,2.1-1.8,4.6-1.8,7.3
	c0,2.5,0.5,5,1.6,7.2c1.3,2.1,2.9,3.9,5,5.1c2.1,1.1,4.4,1.8,6.7,1.8c2.4,0,4.6-0.8,6.8-2c1.4-0.9,2.8-2,3.9-3.4
	c0.1,0.1,0.3,0.4,0.4,0.5c1.3,2.1,2.9,3.9,5,5.1c2.1,1.1,4.4,1.8,6.7,1.8c2.4,0,4.6-0.8,6.8-2c0,0,0,0,0.1,0c0.1,2,0.6,4,1.6,5.7
	c1.3,2.1,2.9,3.9,5,5.1c2.1,1.1,4.4,1.8,6.7,1.8c2.4,0,4.6-0.8,6.8-2c2-1.3,3.9-3,5.1-5.1c1.3-2.1,2-4.6,2-7.2c0-2.5-0.8-5-1.9-7.2
	C113.4,26.9,111.7,25.2,109.7,23.9z M69,25.8c0,1.8,0.1,3.4,0.6,5c-0.9,1.8-2.3,3.3-3.9,4.3c-1.6,1-3.5,1.6-5.7,1.6
	c-2.1,0-4.3-0.5-6.2-1.8c-1.8-1.3-3.3-3-4.3-5.1c-0.9-2-1.5-4.4-1.5-6.8c0-2.1,0.6-4.3,1.5-6.3c1-1.9,2.5-3.5,4-4.6
	c1.6-1.1,3.7-1.7,5.8-1.8c0,0,0,0-0.1,0h0.1c0,0,0,0-0.1,0c2,0,4.1,0.8,5.8,2c1.9,1.3,3.4,3,4.5,5.1c0.1,0.5,0.4,1,0.6,1.5
	C69.5,21,69,23.4,69,25.8z M71,27.6c-0.1-0.8-0.1-1.6-0.1-2.5c0-1,0.1-2,0.4-3.1c0.1,0.8,0.3,1.5,0.3,2.3
	C71.5,25.4,71.2,26.6,71,27.6z M89.2,36.4c0,0.1,0,0.3,0,0.3c-0.3,0.3-0.5,0.4-0.8,0.5c-1.6,1-3.5,1.6-5.7,1.6
	c-2.1,0-4.3-0.5-6.2-1.8c-1.8-1.3-3.3-3-4.3-5.1c-0.3-0.5-0.5-1-0.6-1.5c1-2,1.8-4.4,1.8-6.8c0-1.6-0.4-3.4-1-5
	c1-1.8,2.4-3.3,3.9-4.4c1.6-1.1,3.7-1.7,5.8-1.8c0,0,0,0-0.1,0h0.1c0,0,0,0-0.1,0c2,0,4.1,0.8,5.8,2c1.9,1.3,3.4,3,4.5,5.1
	c0.8,1.8,1.4,3.8,1.5,5.8c-1.3,1-2.4,2.4-3.1,3.8C89.8,31.2,89.2,33.7,89.2,36.4z M94.1,27.1c0,1.9-0.6,3.8-1.5,5.4
	c-0.5,0.9-1,1.6-1.5,2.4c0.1-1.9,0.6-3.8,1.5-5.5C93,28.6,93.5,27.7,94.1,27.1z M112.8,43c-0.9,1.9-2.4,3.5-4.1,4.6
	c-1.6,1-3.5,1.6-5.7,1.6c-2.1,0-4.3-0.5-6.2-1.8c-1.8-1.3-3.3-3-4.3-5.1c-0.9-1.8-1.4-3.8-1.5-5.9c1.1-1.1,2.3-2.3,3.1-3.8
	c1.3-2.1,2-4.6,2-7.2c0-0.1-0.1-0.4-0.1-0.5c0.1-0.1,0.3-0.3,0.5-0.4c1.6-1.1,3.7-1.7,5.8-1.8c0,0,0,0-0.1,0h0.1c0,0,0,0-0.1,0
	c2,0,4.1,0.8,5.8,2c1.9,1.3,3.4,3,4.5,5.1c1,2,1.6,4.4,1.6,6.7C114.4,39,113.9,41.1,112.8,43z"/>
<path class="st3" d="M59.2,16.1c5,0,9.1,4.3,9.1,9.5c0,5.2-4.1,9.5-9.1,9.5c-5,0-9.1-4.3-9.1-9.5C50.1,20.4,54.2,16.1,59.2,16.1"/>
<path class="st4" d="M83.3,16.4c4.7,0.5,8,5.2,7.5,10.4c-0.6,5.2-4.8,9-9.5,8.5c-4.7-0.5-8-5.2-7.5-10.4
	C74.4,19.8,78.7,15.9,83.3,16.4"/>
<path class="st5" d="M102.7,29c5,0,9.1,4.3,9.1,9.5c0,5.2-4.1,9.5-9.1,9.5c-5,0-9.1-4.3-9.1-9.5C93.6,33.3,97.7,29,102.7,29"/>
<polyline class="st1" points="22.5,65.2 22.5,56.2 19.3,56.2 19.3,54.3 27.9,54.3 27.9,56.2 24.7,56.2 24.7,65.2 "/>
<polyline class="st1" points="29.3,65.2 29.3,54.3 31.5,54.3 31.5,58.6 35.8,58.6 35.8,54.3 38,54.3 38,65.2 35.8,65.2 35.8,60.4 
	31.5,60.4 31.5,65.2 "/>
<polyline class="st1" points="40.3,65.2 40.3,54.3 48.3,54.3 48.3,56.2 42.5,56.2 42.5,58.6 47.9,58.6 47.9,60.4 42.5,60.4 
	42.5,63.3 48.5,63.3 48.5,65.2 "/>
<path class="st6" d="M53.2,61.8l2.1-0.2c0.1,0.7,0.4,1.2,0.8,1.6c0.4,0.3,0.9,0.5,1.6,0.5c0.7,0,1.2-0.1,1.6-0.4
	c0.4-0.3,0.5-0.6,0.5-1c0-0.3-0.1-0.5-0.2-0.7c-0.1-0.2-0.4-0.3-0.8-0.5C58.5,61,58,60.8,57,60.6c-1.2-0.3-2-0.6-2.5-1.1
	c-0.7-0.6-1-1.3-1-2.2c0-0.6,0.2-1.1,0.5-1.5c0.3-0.5,0.8-0.8,1.4-1.1c0.6-0.3,1.3-0.4,2.1-0.4c1.4,0,2.4,0.3,3.1,0.9
	c0.7,0.6,1,1.4,1.1,2.4l-2.2,0.1c-0.1-0.6-0.3-1-0.6-1.2c-0.3-0.2-0.8-0.4-1.4-0.4c-0.6,0-1.1,0.1-1.5,0.4c-0.2,0.2-0.3,0.4-0.3,0.7
	c0,0.3,0.1,0.5,0.3,0.7c0.3,0.2,0.9,0.5,2,0.7c1.1,0.3,1.9,0.5,2.4,0.8c0.5,0.3,0.9,0.6,1.2,1.1c0.3,0.5,0.4,1,0.4,1.7
	c0,0.6-0.2,1.2-0.5,1.7c-0.3,0.5-0.8,0.9-1.5,1.2c-0.6,0.3-1.4,0.4-2.4,0.4c-1.4,0-2.4-0.3-3.2-0.9C53.8,64,53.3,63,53.2,61.8"/>
<polyline class="st6" points="63.8,65.3 63.8,54.5 66,54.5 66,58.8 70.3,58.8 70.3,54.5 72.5,54.5 72.5,65.3 70.3,65.3 70.3,60.6 
	66,60.6 66,65.3 "/>
<path class="st6" d="M76.6,59.9c0,1.2,0.3,2.2,0.9,2.8c0.6,0.6,1.3,0.9,2.2,0.9c0.9,0,1.6-0.3,2.1-0.9c0.6-0.6,0.8-1.6,0.8-2.8
	c0-1.2-0.3-2.2-0.8-2.8c-0.5-0.6-1.3-0.9-2.2-0.9c-0.9,0-1.6,0.3-2.2,0.9C76.9,57.7,76.6,58.7,76.6,59.9 M74.3,60
	c0-1.1,0.2-2,0.5-2.8c0.2-0.6,0.6-1,1-1.5c0.4-0.4,0.9-0.8,1.4-1c0.7-0.3,1.5-0.4,2.3-0.4c1.6,0,2.9,0.5,3.8,1.5
	c1,1,1.4,2.4,1.4,4.1c0,1.8-0.5,3.1-1.4,4.1c-1,1-2.2,1.5-3.8,1.5c-1.6,0-2.9-0.5-3.8-1.5C74.8,63.1,74.3,61.7,74.3,60z"/>
<path class="st1" d="M103.7,59.4h1.5c1,0,1.6,0,1.9-0.1c0.2-0.1,0.4-0.2,0.6-0.4c0.1-0.2,0.2-0.5,0.2-0.8c0-0.3-0.1-0.6-0.3-0.8
	c-0.2-0.2-0.4-0.3-0.8-0.4c-0.2,0-0.7,0-1.5,0h-1.6 M101.6,65.3V55h4.4c1.1,0,1.9,0.1,2.4,0.3c0.5,0.2,0.9,0.5,1.2,1
	c0.3,0.5,0.4,1,0.4,1.6c0,0.8-0.2,1.4-0.7,1.9c-0.5,0.5-1.1,0.8-2,1c0.5,0.3,0.8,0.6,1.1,0.9c0.3,0.3,0.7,0.9,1.2,1.7l1.3,2h-2.5
	l-1.5-2.2c-0.5-0.8-0.9-1.3-1.1-1.5c-0.2-0.2-0.4-0.4-0.6-0.4c-0.2-0.1-0.6-0.1-1-0.1h-0.4v4.3H101.6z"/>
<path class="st1" d="M113.7,60.2c0,1.2,0.3,2.1,0.8,2.7c0.5,0.6,1.2,0.9,2.1,0.9c0.8,0,1.5-0.3,2-0.9c0.5-0.6,0.8-1.5,0.8-2.7
	c0-1.2-0.3-2.1-0.8-2.6c-0.5-0.6-1.2-0.9-2.1-0.9c-0.9,0-1.6,0.3-2.1,0.9C114,58.1,113.7,59,113.7,60.2 M111.6,60.3
	c0-1.1,0.2-1.9,0.5-2.6c0.2-0.5,0.6-1,1-1.4c0.4-0.4,0.9-0.7,1.3-0.9c0.6-0.3,1.4-0.4,2.2-0.4c1.5,0,2.7,0.5,3.6,1.4
	c0.9,0.9,1.4,2.3,1.4,3.9c0,1.7-0.5,3-1.4,3.9c-0.9,0.9-2.1,1.4-3.6,1.4c-1.5,0-2.8-0.5-3.7-1.4C112,63.2,111.6,61.9,111.6,60.3z"/>
<path class="st1" d="M124.9,60.2c0,1.2,0.3,2.1,0.8,2.7c0.5,0.6,1.2,0.9,2.1,0.9c0.8,0,1.5-0.3,2-0.9c0.5-0.6,0.8-1.5,0.8-2.7
	c0-1.2-0.3-2.1-0.8-2.6c-0.5-0.6-1.2-0.9-2.1-0.9c-0.9,0-1.6,0.3-2.1,0.9C125.2,58.1,124.9,59,124.9,60.2 M122.8,60.3
	c0-1.1,0.2-1.9,0.5-2.6c0.2-0.5,0.6-1,1-1.4c0.4-0.4,0.9-0.7,1.3-0.9c0.6-0.3,1.4-0.4,2.2-0.4c1.5,0,2.7,0.5,3.6,1.4
	c0.9,0.9,1.4,2.3,1.4,3.9c0,1.7-0.5,3-1.4,3.9c-0.9,0.9-2.1,1.4-3.6,1.4c-1.5,0-2.8-0.5-3.7-1.4C123.2,63.2,122.8,61.9,122.8,60.3z"
	/>
<polyline class="st1" points="134.4,65.3 134.4,55 137.5,55 139.4,62.1 141.2,55 144.4,55 144.4,65.3 142.4,65.3 142.4,57.2 
	140.4,65.3 138.4,65.3 136.3,57.2 136.3,65.3 "/>
<polyline class="st7" points="87,65.3 87,50.4 98,50.4 98,53 90,53 90,56.3 97.5,56.3 97.5,58.8 90,58.8 90,62.8 98.3,62.8 
	98.3,65.3 "/>
</svg>
